Importing data from YAML file to R
…
## $Space_Group_Number
## # A tibble: 118 × 3
##    title              value Symbol
##    <chr>              <int> <chr> 
##  1 Space group number   194 H     
##  2 Space group number   225 He    
##  3 Space group number   229 Li    
##  4 Space group number   194 Be    
##  5 Space group number   166 B     
##  6 Space group number   194 C     
##  7 Space group number   194 N     
##  8 Space group number    12 O     
##  9 Space group number    15 F     
## 10 Space group number   225 Ne    
## # ℹ 108 more rows
## 
## $Gas_Phase_Configuration
## # A tibble: 118 × 3
##    title                      value        Symbol
##    <chr>                      <chr>        <chr> 
##  1 Configuration in gas phase "Diatomic"   H     
##  2 Configuration in gas phase "Monoatomic" He    
##  3 Configuration in gas phase ""           Li    
##  4 Configuration in gas phase ""           Be    
##  5 Configuration in gas phase ""           B     
##  6 Configuration in gas phase ""           C     
##  7 Configuration in gas phase "Diatomic"   N     
##  8 Configuration in gas phase "Diatomic"   O     
##  9 Configuration in gas phase "Diatomic"   F     
## 10 Configuration in gas phase "Monoatomic" Ne    
## # ℹ 108 more rows
## 
## $Name
## # A tibble: 118 × 4
##    title footnote                                value     Symbol
##    <chr> <chr>                                   <chr>     <chr> 
##  1 Name  "Using IUPAC spelling for Al, P, Cs.\n" Hydrogen  H     
##  2 Name  "Using IUPAC spelling for Al, P, Cs.\n" Helium    He    
##  3 Name  "Using IUPAC spelling for Al, P, Cs.\n" Lithium   Li    
##  4 Name  "Using IUPAC spelling for Al, P, Cs.\n" Beryllium Be    
##  5 Name  "Using IUPAC spelling for Al, P, Cs.\n" Boron     B     
##  6 Name  "Using IUPAC spelling for Al, P, Cs.\n" Carbon    C     
##  7 Name  "Using IUPAC spelling for Al, P, Cs.\n" Nitrogen  N     
##  8 Name  "Using IUPAC spelling for Al, P, Cs.\n" Oxygen    O     
##  9 Name  "Using IUPAC spelling for Al, P, Cs.\n" Fluorine  F     
## 10 Name  "Using IUPAC spelling for Al, P, Cs.\n" Neon      Ne    
## # ℹ 108 more rows
…
Print a random selection of columns (to aid in error-checking while
rebuilding the vignette). We randomly reshuffle the order of columns
except for the first two, this way the info printed at the bottom of the
tibble output still state the correct number of non-visible columns.

https://statisticsglobe.com/randomly-reorder-data-frame-by-row-and-column-in-r#example-2-shuffle-data-frame-by-column

pdt[, c(1, 2, sample(3:ncol(pdt)))]

## # A tibble: 118 × 80
##    Symbol Name      Shear_Modulus Half_Life DOT_Numbers Young_Modulus Atomic_Weight
##    <chr>  <chr>             <dbl>     <dbl> <chr>               <dbl>         <dbl>
##  1 H      Hydrogen             NA       Inf "1966"                 NA          1.01
##  2 He     Helium               NA       Inf "1963"                 NA          4.00
##  3 Li     Lithium      4200000000       Inf "1415"         4900000000          6.94
##  4 Be     Beryllium  132000000000       Inf "1567"       287000000000          9.01
##  5 B      Boron                NA       Inf ""                     NA         10.8 
##  6 C      Carbon               NA       Inf "1361"                 NA         12.0 
##  7 N      Nitrogen             NA       Inf "1977"                 NA         14.0 
##  8 O      Oxygen               NA       Inf "1073"                 NA         16.0 
##  9 F      Fluorine             NA       Inf "9192"                 NA         19.0 
## 10 Ne     Neon                 NA       Inf "1913"                 NA         20.2 
## # ℹ 108 more rows
## # ℹ 73 more variables: CID_Number <chr>, Colour <chr>, Thermal_Expansion <dbl>,
## #   Series <chr>, Gmelin_Number <chr>, Density <dbl>, Percent_in_Oceans <dbl>,
## #   Group <int>, Percent_in_Meteorites <dbl>, Group_Left_Step <int>,
## #   Molar_Volume <dbl>, Bulk_Modulus <dbl>, Heat_of_Combustion <int>, Block <chr>,
## #   Mohs_Hardness <dbl>, Space_Group_Number <int>, Phase <chr>,
## #   Percent_in_Sun <dbl>, Covalent_Radius <dbl>, CAS_Number <chr>, …
…
